﻿mcm_300x250_ROS_C.swf Movie Report
-----------------------------------

Metadata
--------
Bytes         Value
----------    -----
       834    <rdf:RDF xmlns:rdf="http://www.w3.org/1999/02/22-rdf-syntax-ns#"> <rdf:Description rdf:about="" xmlns:xmp="http://ns.adobe.com/xap/1.0/"> <xmp:CreatorTool>Adobe Flash Professional CS6 - build 481</xmp:CreatorTool> <xmp:CreateDate>2014-06-04T22:30:01+02:00</xmp:CreateDate> <xmp:MetadataDate>2014-06-10T22:02:12+02:00</xmp:MetadataDate> <xmp:ModifyDate>2014-06-10T22:02:12+02:00</xmp:ModifyDate> </rdf:Description> <rdf:Description rdf:about="" xmlns:dc="http://purl.org/dc/elements/1.1/"> <dc:format>application/x-shockwave-flash</dc:format> </rdf:Description> <rdf:Description rdf:about="" xmlns:xmpMM="http://ns.adobe.com/xap/1.0/mm/" xmlns:stRef="http://ns.adobe.com/xap/1.0/sType/ResourceRef#"> <xmpMM:DerivedFrom rdf:parseType="Resource"> <stRef:instanceID>xmp.iid:F07A337D082068118C14DBBEE79F469F</stRef:instanceID> <stRef:documentID>xmp.did:C6C6421427ECE3118204DF143761F4EA</stRef:documentID> <stRef:originalDocumentID>xmp.did:C6C6421427ECE3118204DF143761F4EA</stRef:originalDocumentID> </xmpMM:DerivedFrom> <xmpMM:DocumentID>xmp.did:131593380D2068118C14DBBEE79F469F</xmpMM:DocumentID> <xmpMM:InstanceID>xmp.iid:131593380D2068118C14DBBEE79F469F</xmpMM:InstanceID> <xmpMM:OriginalDocumentID>xmp.did:C6C6421427ECE3118204DF143761F4EA</xmpMM:OriginalDocumentID> </rdf:Description> </rdf:RDF> 

Frame #    Frame Bytes    Total Bytes    Scene
-------    -----------    -----------    -----
      1          38886          38886    Scene 1 (AS 3.0 Classes Export Frame)

Scene      Shape Bytes    Text Bytes    ActionScript Bytes
-------    -----------    ----------    ------------------
Scene 1              0             0                 22354

Symbol         Shape Bytes    Text Bytes    ActionScript Bytes
-----------    -----------    ----------    ------------------
black_box               23             0                     0
btn                     25             0                     0
car image                0             0                     0
core                    35             0                     0
core copy                0             0                     0
core copy 2             35             0                     0
dateTxt                  0           537                     0
fb ico                  55             0                     0
flare                    0             0                     0
flare_BIG                0             0                     0
flare truTV              0             0                     0
glow                     0             0                     0
line                     0             0                     0
mask                     0             0                     0
MCM logo                 0             0                     0
MCMTT_mask               0             0                     0
sketch                   0             0                     0
streak                  23             0                     0
truTV                  171             0                     0
trutv_mask               0             0                     0
tune_up                  0           119                     0
tw ico                  81             0                     0
Txt                      0           306                     0
car mask                 0             0                     0
carm001                 32             0                     0
carm002                  0             0                     0
carm003                 38             0                     0
carm004                 73             0                     0
carm005                 50             0                     0
carm006                  0             0                     0
carm007                  0             0                     0
carm008                  0             0                     0
carm009                 48             0                     0
carm010                 53             0                     0
carm011                 72             0                     0
carm012                 87             0                     0
carm013                 71             0                     0
carmfill                 0             0                     0
mask001                  0             0                     0
mask002                  0             0                     0
mask003                  0             0                     0
mask004                  0             0                     0
mask005                  0             0                     0
mask006                  0             0                     0
mask007                  0             0                     0
mask008                  0             0                     0
mask009                  0             0                     0
mask010                  0             0                     0
mask011                  0             0                     0
mask012                  0             0                     0
mask013                  0             0                     0
mask014                  0             0                     0
mask015                  0             0                     0
mask016                  0             0                     0
mask019                  0             0                     0
mask020                  0             0                     0
mask021                  0             0                     0
mask023                  0             0                     0
mask024                 21             0                     0
mask025                 21             0                     0
mask026                  0             0                     0
mask027                  0             0                     0

Font Name                           Bytes         Characters
--------------------------------    ----------    ----------
DINCondensed-Bold Bold                    1326     .ABCDEFHIKLMOPRSTW 
HelveticaNeue-CondensedBold Bold          2475     /01249ACDEGHIJMNOPRSTUWY 
HelveticaNeue-Bold Bold                    922     enptu 

ActionScript Bytes    Location
------------------    --------
             22354    Scene 1:Frame 1

Bitmap          Compressed    Original      Compression
------------    ----------    ----------    -----------
Bitmap 15             3904        450000    JPEG Quality=48
mcm_logo.png          2976         25168    JPEG Quality=60




