﻿mcm_970x250.swf Movie Report
-----------------------------

Metadata
--------
Bytes         Value
----------    -----
       788    <rdf:RDF xmlns:rdf="http://www.w3.org/1999/02/22-rdf-syntax-ns#"> <rdf:Description rdf:about="" xmlns:xmp="http://ns.adobe.com/xap/1.0/"> <xmp:CreatorTool>Adobe Flash Professional CS6 - build 481</xmp:CreatorTool> <xmp:CreateDate>2014-06-04T22:30:01+02:00</xmp:CreateDate> <xmp:MetadataDate>2014-06-13T15:06:18+02:00</xmp:MetadataDate> <xmp:ModifyDate>2014-06-13T15:06:18+02:00</xmp:ModifyDate> </rdf:Description> <rdf:Description rdf:about="" xmlns:dc="http://purl.org/dc/elements/1.1/"> <dc:format>application/x-shockwave-flash</dc:format> </rdf:Description> <rdf:Description rdf:about="" xmlns:xmpMM="http://ns.adobe.com/xap/1.0/mm/" xmlns:stRef="http://ns.adobe.com/xap/1.0/sType/ResourceRef#"> <xmpMM:DerivedFrom rdf:parseType="Resource"> <stRef:instanceID>xmp.iid:047A0BDC1A2068118083DE877A0F33C1</stRef:instanceID> <stRef:documentID>xmp.did:C6C6421427ECE3118204DF143761F4EA</stRef:documentID> <stRef:originalDocumentID>xmp.did:C6C6421427ECE3118204DF143761F4EA</stRef:originalDocumentID> </xmpMM:DerivedFrom> <xmpMM:DocumentID>xmp.did:9A9FE2201B2068118083DE877A0F33C1</xmpMM:DocumentID> <xmpMM:InstanceID>xmp.iid:9A9FE2201B2068118083DE877A0F33C1</xmpMM:InstanceID> <xmpMM:OriginalDocumentID>xmp.did:C6C6421427ECE3118204DF143761F4EA</xmpMM:OriginalDocumentID> </rdf:Description> </rdf:RDF> 

Frame #    Frame Bytes    Total Bytes    Scene
-------    -----------    -----------    -----
      1          65781          65781    Scene 1 (AS 3.0 Classes Export Frame)
      2          19574          85355    

Scene      Shape Bytes    Text Bytes    ActionScript Bytes
-------    -----------    ----------    ------------------
Scene 1              0             0                 61380

Symbol              Shape Bytes    Text Bytes    ActionScript Bytes
----------------    -----------    ----------    ------------------
banner_mc                     0             0                     0
bgx1                         35             0                     0
btn_bgd                       0             0                     0
btnClosePanel                 0             0                     0
chevrolet logo                0           105                     0
close gradient                0             0                     0
expand_btn                    0             0                     0
maska016                      0             0                     0
maska017                      0             0                     0
maska018                      0             0                     0
car mask                      0             0                     0
carm001                      30             0                     0
carm002                       0             0                     0
carm003                      36             0                     0
carm004                      69             0                     0
carm005                      47             0                     0
carm006                       0             0                     0
carm007                      23             0                     0
carm008                       0             0                     0
carm009                      46             0                     0
carm010                      50             0                     0
carm011                      68             0                     0
carm012                      89             0                     0
carm013                      73             0                     0
carmfill                      0             0                     0
mask001                       0             0                     0
mask002                       0             0                     0
mask003                       0             0                     0
mask004                       0             0                     0
mask005                       0             0                     0
mask006                       0             0                     0
mask007                       0             0                     0
mask008                       0             0                     0
mask009                       0             0                     0
mask010                       0             0                     0
mask011                       0             0                     0
mask012                       0             0                     0
mask013                       0             0                     0
mask014                      22             0                     0
mask015                       0             0                     0
mask016                      19             0                     0
mask019                       0             0                     0
mask020                       0             0                     0
mask021                       0             0                     0
mask023                       0             0                     0
mask024                      19             0                     0
mask025                      20             0                     0
mask026                       0             0                     0
mask027                       0             0                     0
arrows                        0             0                     0
black_box                     0             0                     0
btn                          25             0                     0
car image                     0             0                     0
core                         33             0                     0
core copy                     0             0                     0
core copy 2                  33             0                     0
dateTxt                       0           511                     0
fb ico                       38             0                     0
Symbol 8                     21             0                     0
flare                         0             0                     0
flare truTV                   0             0                     0
flare_BIG                     0             0                     0
glow                          0             0                     0
line                          0             0                     0
mask                          0             0                     0
MCM logo                      0             0                     0
MCMTT_mask                    0             0                     0
sketch                       25             0                     0
streak                       21             0                     0
trutv_mask                    0             0                     0
truTV                       162             0                     0
tune_up                       0           113                     0
tw ico                       62             0                     0
Symbol 6                      0             0                     0
Txt                           0           289                     0
ebAPIProxy                    0             0                     0
VideoScreen                   0             0                     0
MuteUnmuteBtn_mc            153             0                     0
Symbol 1                      0             0                     0
Symbol 2                      0             0                     0
Symbol 5                      0             0                     0
PlayPauseBtn_mc              48             0                     0
Symbol 4                     21             0                     0
ReplayBtn                     0            37                     0
soundBtn_mc                  24             0                     0
Symbol 3                     32             0                     0
Symbol 7                      0             0                     0
videoHolder                  26             0                     0
VolumeMC                      0            35                     0

Font Name                           Bytes         Characters
--------------------------------    ----------    ----------
DINCondensed-Bold Bold                    1253     .ABCDEFHIKLMOPRSTW 
HelveticaNeue-CondensedBold Bold          2437     /01249ACDEFGHIJKLMNOPRSTUWY 
HelveticaNeue-Bold Bold                   1435     bdenprstuy 

ActionScript Bytes    Location
------------------    --------
             61380    Scene 1:Frame 1

Bitmap                Compressed    Original      Compression
------------------    ----------    ----------    -----------
Bitmap 20                   8266        529000    JPEG Quality=80
mcm_TT.png                  3404         25920    JPEG Quality=80
chevrolet_logo.png           970          4752    JPEG Quality=80




